{
  "type": "mysql",
  "host": "localhost",
  "port": 3306,
  "username": "root",
  "password": "",
  "database": "nestjsrealworld",
  "entities": ["src/**/**.entity{.ts,.js}"],
  "autoSchemaSync": true,
  "logging": true
}